<?xml version="1.0" encoding="utf-8"?>
<!-- Generator: Adobe Illustrator 22.0.1, SVG Export Plug-In . SVG Version: 6.00 Build 0)  -->
<svg version="1.1" id="Слой_1" xmlns="http://www.w3.org/2000/svg" xmlns:xlink="http://www.w3.org/1999/xlink" x="0px" y="0px"
	 viewBox="0 0 522 478" style="enable-background:new 0 0 522 478;" xml:space="preserve">
<style type="text/css">
	.st0{fill:#2F3896;}
</style>
<g>
	<g>
		<path d="M496.9,10.3L496.9,10.3c-80.7,0.1-162.7,0.2-243.6,0.2c-71.3,0-145.9,0-228.2-0.1c-8.4,0-12.8,2.2-15.6,7.7v258
			c2.6,5.6,6.9,7.9,14.7,7.9h0.1c53.3-0.2,107.8-0.2,163.5-0.1h17c11.3,0,22.6,0,34,0h11.3v41.8l-39.9,0c-24.6,0-49.2,0-73.8,0
			c-18,0-36,0-54,0c-3,0-5.8,0.1-8.5,0.7c-4.4,1-7.4,4.5-7.5,8.8c-0.2,19.7-0.2,38,0,55.9c0.1,4.2,3.4,7.9,8,8.7
			c2.2,0.4,4.6,0.5,6.7,0.5c62.7,0,125.4,0,188.1,0h41.9l0,23.3c0,10.2,0,20.4,0,30.5c0,8.3,3.8,12.2,11.8,12.2
			c43.7,0.1,86.9,0.1,128.5,0c8.1,0,11.9-4.2,11.9-13.2c0-39.6,0-79.2,0-118.9l0-50.2h4.5c2,0,4,0,5.9,0l3,0
			c7.7,0,14.8,0.1,22.1-0.1c1.8,0,5.9-0.1,7.6-1.3c1.6-1.1,3-3,4.5-5.1c0.4-0.6,0.9-1.3,1.4-1.9V18
			C509.6,12.5,505.2,10.3,496.9,10.3z M311,378.7H87.6V347H311V378.7z M271.8,325.3v-41.2h39v41.2H271.8z M442.1,445H332.6V151.1
			h109.4V445z M491.1,262.6h-27.8v-41.3c0-25.8,0-51.7,0-77.5c0-10.7-3.4-14.1-14-14.1c-41.3,0-82.7,0-124,0
			c-10.7,0-14.1,3.4-14.1,13.9c0,26,0,52,0,78v40.8H30.8V31.9h460.3V262.6z"/>
	</g>
	<g>
		<path class="st0" d="M213.8,114c-1.7,13.5-10.9,25.1-24.4,31c-4.5,1.9-6.5,5.1-6.3,9.9c0.1,2.8,0.1,6.3-0.4,9.6
			c-0.8,5.1-5.3,8.8-10.5,8.5c-5.4-0.3-9.5-4.2-9.9-9.4c-0.2-2.8-0.1-5.8-0.1-8.6l0-0.3c0-1.4,0-2.8,0-4.3l-0.1-3l0-1.3
			c0-2.5,0-5,0-7.5c0.2-6.6,3.8-10.3,10.6-11.1c2.9-0.3,6.6-0.9,10-2.5c6.5-3.1,10.3-8.9,10.3-16c0-6.9-3.5-12.4-10-16
			c-5.1-2.8-11-3.4-16.4-1.8c-5.5,1.7-10.2,5.6-13.1,11c-1.4,2.5-2.8,4.3-4.4,5.5c-1.5,1.1-3.2,1.7-5.3,1.8c-3.7,0.2-7-1.4-9-4.3
			c-2.1-3-2.5-6.9-1-10.4c4.8-11.7,15-20.4,27.9-23.9c12.9-3.5,26.1-1,36.1,6.8C209.6,86.9,215.5,100.5,213.8,114z"/>
	</g>
	<g>
		<path class="st0" d="M184.9,207c0,4.7-1.9,8.7-5.1,10.8c-2.7,1.8-6,2.1-9.3,0.8c-5.5-2.2-8.1-9.1-6.2-16.8
			c1.1-4.5,5.2-7.6,10.2-7.6c0.5,0,0.9,0,1.3,0.1h0C181.7,195,185,199.6,184.9,207z"/>
	</g>
	<g>
		<path class="st0" d="M397.5,221c-0.1,2.4-1.1,4.7-2.7,6.5c-1.6,1.7-3.8,2.8-6.1,3.1h0c-5,0.6-10.6-1.9-11.1-6.9
			c-1-8.5-1-17.3,0-26.3c0.5-4.6,5.3-7,9.7-7c0.4,0,0.7,0,1.1,0c5,0.4,8.9,4.5,9.2,9.6c0.1,2.2,0.1,4.6,0.1,6.9v0.3
			c0,1.2,0,2.3,0,3.5c0,0.8,0,1.5,0,2.3l0,1.1C397.7,216.6,397.7,218.8,397.5,221z"/>
	</g>
	<g>
		<path class="st0" d="M374.4,409.5c-0.7,4.8-6,7.3-10.4,7c-5.1-0.4-9.1-4.3-9.5-9.3c-0.1-1.4-0.1-2.9,0-4.7l0-0.8
			c0-0.5,0-1.1,0-1.6l-0.1-4.5c0-0.7,0-1.4,0.1-2.1c0.2-2.6,1.2-4.9,3-6.6c0.9-0.9,1.9-1.5,3.1-2.1c1.1-0.5,2.4-0.8,3.7-0.9
			c4.3-0.3,9.6,2.5,10.3,7.2C375.4,397.1,375.3,403.5,374.4,409.5z"/>
	</g>
	<g>
		<path class="st0" d="M419.6,408.7c-0.7,4.9-5.4,8.3-10.8,7.8c-5.1-0.5-9-4.5-9.4-9.6c-0.1-1.4-0.1-2.8,0-4.3l0-0.8
			c0-0.5,0-1,0-1.6l0-2.2c0-1.5-0.1-3,0-4.4c0.4-5.3,4.4-9.3,9.7-9.7c5.1-0.4,9.8,3.1,10.4,7.7C420.3,397.2,420.3,403.1,419.6,408.7
			z"/>
	</g>
	<g>
		<path class="st0" d="M375.5,299.2c0,0.6-0.1,1.1-0.1,1.7l0,0.5c-0.1,1.7-0.2,3.8-0.6,5.6c-1,4.7-5.2,8-9.9,8c-0.2,0-0.5,0-0.8,0
			c-5.4-0.4-9.4-4.4-9.7-9.7c-0.2-3.7-0.2-7.7-0.1-12.6c0.2-5.7,4.1-9.9,9.4-10.3c0.3,0,0.6,0,0.9,0c5.3,0,9.4,3.6,10.3,8.9
			c0.2,1.4,0.3,3,0.3,4.9v0.1C375.5,297.3,375.5,298.3,375.5,299.2z"/>
	</g>
	<g>
		<path class="st0" d="M420.5,299.4c-0.1,0.7-0.1,1.5-0.2,2.2l0,0.3c-0.1,1.8-0.3,3.7-0.7,5.5c-1,4.7-5.5,8-10.4,7.7
			c-5.3-0.3-9.4-4.1-9.8-9.1c-0.2-2.3-0.3-4.6-0.3-7.2c0-1.9,0-3.9,0.1-6.3c0.2-5.5,4.3-9.7,9.6-10c0.2,0,0.5,0,0.7,0
			c5.2,0,9.4,3.5,10.3,8.8c0.3,1.6,0.3,3.3,0.4,5.3C420.4,297.4,420.4,298.4,420.5,299.4z"/>
	</g>
	<g>
		<path class="st0" d="M374.6,358.2c-0.7,4.9-5.2,7.9-11,7.4c-5-0.4-8.8-4.5-9.1-9.6c0-0.7-0.1-1.5-0.1-2.2h0.1v-4.5
			c0-0.5,0-1,0-1.5l0-0.8c0-1.5-0.1-3,0-4.3c0.2-2.5,1.2-4.7,2.8-6.4c1.6-1.6,3.8-2.7,6.2-2.9c5.7-0.5,10.4,2.6,11.1,7.3
			C375.4,346.4,375.4,352.4,374.6,358.2z"/>
	</g>
	<g>
		<path class="st0" d="M419.6,358.1c-0.7,4.9-5.2,8-11,7.5c-4.9-0.4-8.7-4.2-9.1-9.2c-0.1-1.4-0.1-3,0-4.7l0-0.8c0-0.5,0-1.1,0-1.6
			v-2.5l0-2h0c0-0.7,0-1.5,0.1-2.2c0.2-2.5,1.2-4.8,2.9-6.5c1.7-1.7,3.9-2.7,6.5-2.9c5.7-0.4,10.2,2.8,10.9,7.7
			C420.4,346.6,420.4,352.5,419.6,358.1z"/>
	</g>
</g>
</svg>
